{"jfrog":
[{"name":"inUse","value":"false","required":"true"},
{"name":"serverUrl","value":"https://cloudmigrate.jfrog.io/cloudmigrate","required":"true"},
{"name":"userName","value":"admin","required":"true"},
{"name":"password","value":"Ex3Mc5Ma7Lh8Fu","required":"true"},
{"name":"apiKey","value":"","required":"false"},
{"name":"excludePatterns","value":"","required":"false"},
{"name":"publishRepoKey","value":"local-maven-repo","required":"true"},
{"name":"pluginRepoKey","value":"remote-maven-repo","required":"true"},
{"name":"snapshotRepoKey","value":"libs-snapshot-local","required":"true"},
{"name":"includeEnvVars","value":"true","required":"true"},
{"name":"envVarsExcludePatterns","value":"*password*,*secret*,*key*,*token*,*passphrase*","required":"true"},
{"name":"timeoutInSeconds","value":"60","required":"true"},
{"name":"buildName","value":"google-functions-demo-jfrog-build","required":"true"},
{"name":"buildNumber","value":"001","required":"true"},
{"name":"buildUrl","value":"https://bitbucket.org/tylertravismya/googlefunctions/src","required":"false"},
{"name":"licenseAutoDiscover","value":"true","required":"true"},
{"name":"licenseIncludePublishedArtifacts","value":"false","required":"true"},
{"name":"licenseRunChecks","value":"true","required":"true"},
{"name":"licenseScopes","value":"compile,runtime","required":"false"},
{"name":"violationRecipients","value":"","required":"false"}],
"gcp-functions":
[{"name":"name","value":"gcp-functions","required":"true"},
{"name":"version","value":"0.0.1","required":"true"},
{"name":"license","value":"MIT","required":"true"},
{"name":"description","value":"package description for GCP functions","required":"true"},
{"name":"runtime","value":"Node.js","required":"true"},
{"name":"RESTfulAPIsURL","value":"35.196.20.46","required":"true"},
{"name":"RESTfulAPIsPort","value":"4567","required":"true"},
{"name":"useFirebase","value":"true","required":"true"},
{"name":"projectId","value":"sharp-footing-218200","required":"true"}],
"application":
[{"name":"name","value":"google_functions_demo","required":"true"},
{"name":"description","value":"Demo Google Functions application generated by realMethods","required":"false"},
{"name":"author","value":"dev@realmethods.com","required":"false"},
{"name":"corporate logo URL","value":"","required":""},
{"name":"application logo URL","value":"./img/turnstone.biologics.png","required":"false"},
{"name":"company name","value":"Turnstone Biologics","required":"true"},
{"name":"version","value":"0.0.1","required":"true"},
{"name":"package name","value":"com.occulue","required":"true"}],
"heroku":
[{"name":"auto deploy","value":"true","required":"false"},
{"name":"app name","value":"gcp-demo","required":"true"}],
"swagger":
[{"name":"host","value":"","required":"true"},
{"name":"basepath","value":"/","required":"true"},
{"name":"contact name","value":"realMethods Dev","required":"false"},
{"name":"contact email","value":"dev@realmethods.com","required":"false"},
{"name":"contact url","value":"","required":"false"},
{"name":"license url","value":"http://www.apache.org/licenses/LICENSE-2.0.html","required":"false"},
{"name":"license name","value":"Apache 2.0","required":"false"},
{"name":"title","value":"Google Functions Swagger","required":"false"},
{"name":"version","value":"v1.0","required":"false"},
{"name":"description","value":"Swagger file for Google Functions","required":"false"},
{"name":"terms of service","value":"","required":"false"},
{"name":"output formats","value":"json","required":"false"}],
"hibernate":
[{"name":"hibernate.connection.driver.class","value":"com.mysql.jdbc.Driver","required":"true"},
{"name":"hibernate.connection.username","value":"root","required":"true"},
{"name":"hibernate.connection.password","value":"6969Cutlass!!","required":"true"},
{"name":"hibernate.dialect","value":"org.hibernate.dialect.MySQL8Dialect","required":"true"},
{"name":"hibernate.max.fetch.depth","value":"1","required":"false"},
{"name":"hibernate.connection.url","value":"jdbc:mysql://localhost:3306/googlefuncsdemo?createDatabaseIfNotExist\u003dtrue","required":"false"}],
"Spark Restful":
[{"name":"buildRESTfulLayer","value":"true","required":"true"},
{"name":"copyRESTfulLayer","value":"false","required":"true"},
{"name":"securityRemoteUrl","value":"","required":"true"},
{"name":"fileLocation","value":"/usr/share/realMethods","required":"true"},
{"name":"privateKeyFileLocation","value":"C:\\Users\\srand\\Downloads\\business\\technical\\pem.files\\realMethods-default-key-pair.pem","required":"true"},
{"name":"passphrase","value":"","required":"true"}]}
