{"jfrog": 
[{"name":"inUse","value":"false","required":"true"},
{"name":"serverUrl","value":"https://cloudmigrate.jfrog.io/cloudmigrate","required":"true"},
{"name":"userName","value":"admin","required":"true"},
{"name":"password","value":"Ex3Mc5Ma7Lh8Fu","required":"true"},
{"name":"apiKey","value":"","required":"false"},
{"name":"excludePatterns","value":"","required":"false"},
{"name":"publishRepoKey","value":"local-maven-repo","required":"true"},
{"name":"pluginRepoKey","value":"remote-maven-repo","required":"true"},
{"name":"snapshotRepoKey","value":"libs-snapshot-local","required":"true"},
{"name":"includeEnvVars","value":"true","required":"true"},
{"name":"envVarsExcludePatterns","value":"*password*,*secret*,*key*,*token*,*passphrase*","required":"true"},
{"name":"timeoutInSeconds","value":"60","required":"true"},
{"name":"buildName","value":"lambda-mongodb-demo-jfrog-build","required":"true"},
{"name":"buildNumber","value":"001","required":"true"},
{"name":"buildUrl","value":"https://bitbucket.org/tylertravismya/lambda/src","required":"false"},
{"name":"licenseAutoDiscover","value":"true","required":"true"},
{"name":"licenseIncludePublishedArtifacts","value":"false","required":"true"},
{"name":"licenseRunChecks","value":"true","required":"true"},
{"name":"licenseScopes","value":"compile,runtime","required":"false"},
{"name":"violationRecipients","value":"","required":"false"}],
"aws-lambda":
[{"name":"accessKey","value":"ADD_KEY_HERE_OR_MAKE_AN_ENV_VAR","required":"true"},
{"name":"secretKey","value":"ADD_KEY_HERE_OR_MAKE_AN_ENV_VAR","required":"true"},
{"name":"s3Bucket","value":"realmethodsdemobucket","required":"true"},
{"name":"region","value":"us-east-1","required":"true"},
{"name":"runtime","value":"java8","required":"true"},
{"name":"lambdaRoleArn","value":"arn:aws:iam::110777515443:role/service-role/myRoleName","required":"true"},
{"name":"timeout","value":"30","required":"true"},
{"name":"memorySize","value":"512","required":"true"},
{"name":"forceUpdate","value":"true","required":"false"},
{"name":"publish","value":"true","required":"false"},
{"name":"vpcSubnetIds","value":"","required":"false"},
{"name":"vpcSecurityGroupIds","value":"","required":"false"}],
"application":
[{"name":"name","value":"lambda_mongodb_demo","required":"true"},
{"name":"description","value":"Demo AWS Lambda-MongoDB application generated by realMethods","required":"false"},
{"name":"author","value":"dev@realmethods.com","required":"false"},
{"name":"corporate logo URL","value":"","required":""},
{"name":"application logo URL","value":"./img/turnstone.biologics.png","required":"false"},
{"name":"company name","value":"Turnstone Biologics","required":"true"},
{"name":"version","value":"0.0.1","required":"true"},
{"name":"package name","value":"com.occulue","required":"true"}],
"Heroku":
[{"name":"auto deploy","value":"true","required":"true"},
{"name":"app name","value":"demo","required":"true"}],
"swagger":
[{"name":"host","value":"","required":"true"},
{"name":"basepath","value":"/","required":"true"},
{"name":"contact name","value":"realMethods Dev","required":"false"},
{"name":"contact email","value":"dev@realmethods.com","required":"false"},
{"name":"contact url","value":"","required":"false"},
{"name":"license url","value":"http://www.apache.org/licenses/LICENSE-2.0.html","required":"false"},
{"name":"license name","value":"Apache 2.0","required":"false"},
{"name":"title","value":"Lambda Functions Swagger","required":"false"},
{"name":"version","value":"v1.0","required":"false"},
{"name":"description","value":"Swagger file for Lambda Functions","required":"false"},
{"name":"terms of service","value":"","required":"false"},
{"name":"output formats","value":"json","required":"false"}],
"mongodb":
[{"name":"server addresses","value":"127.0.0.1:27017","required":"false"},
{"name":"database name","value":"lambdamongdbdemo","required":"false"},
{"name":"credentials","value":"","required":"false"},
{"name":"search size","value":"10","required":"false"},
{"name":"default collection name","value":"default_collection","required":"false"},
{"name":"auto-increment id name","value":"_id","required":"false"},
{"name":"auto-increment seq name","value":"seq","required":"false"}]}
